{
  "compilerOptions": {
    "checkJs": true,
    "strict": true,
    "target": "esnext",
    "module": "commonjs",
    "strictNullChecks": false,
    "noEmit": true,
    "lib": [
      "esnext","scripthost"
    ]
  }
}
